%YAML 1.1
%TAG !u! tag:unity3d.com,2011:
--- !u!1045 &1
EditorBuildSettings:
  m_ObjectHideFlags: 0
  serializedVersion: 2
  m_Scenes:
  - enabled: 1
    path: Assets/_Scenes/menuScene.unity
    guid: 971ca446c2f8ae249b57646472081ed3
  - enabled: 1
    path: Assets/_Scenes/mainScene.unity
    guid: e4fd3c54b87516c4fa657f6f810e37c6
  m_configObjects: {}
